Lab10_2/simulation/qsim/final.msim.vcd
$comment
	File created using the following command:
		vcd file final.msim.vcd -direction
$end
$date
	Fri Jan 03 18:02:16 2020
$end
$version
	ModelSim Version 10.5b
$end
$timescale
	1ps
$end

$scope module final_vlg_vec_tst $end
$var reg 2 ! AA [1:0] $end
$var reg 2 " BA [1:0] $end
$var reg 2 # DA [1:0] $end
$var reg 8 $ Datain [7:0] $end
$var reg 4 % FS [3:0] $end
$var reg 1 & MB $end
$var reg 1 ' MD $end
$var reg 1 ( RW $end
$var reg 1 ) clk $end
$var wire 1 * F [7] $end
$var wire 1 + F [6] $end
$var wire 1 , F [5] $end
$var wire 1 - F [4] $end
$var wire 1 . F [3] $end
$var wire 1 / F [2] $end
$var wire 1 0 F [1] $end
$var wire 1 1 F [0] $end

$scope module i1 $end
$var wire 1 2 gnd $end
$var wire 1 3 vcc $end
$var wire 1 4 unknown $end
$var tri1 1 5 devclrn $end
$var tri1 1 6 devpor $end
$var tri1 1 7 devoe $end
$var wire 1 8 F[0]~output_o $end
$var wire 1 9 F[1]~output_o $end
$var wire 1 : F[2]~output_o $end
$var wire 1 ; F[3]~output_o $end
$var wire 1 < F[4]~output_o $end
$var wire 1 = F[5]~output_o $end
$var wire 1 > F[6]~output_o $end
$var wire 1 ? F[7]~output_o $end
$var wire 1 @ clk~input_o $end
$var wire 1 A clk~inputclkctrl_outclk $end
$var wire 1 B FS[3]~input_o $end
$var wire 1 C FS[1]~input_o $end
$var wire 1 D AA[1]~input_o $end
$var wire 1 E MD~input_o $end
$var wire 1 F Datain[0]~input_o $end
$var wire 1 G regR0~1_combout $end
$var wire 1 H RW~input_o $end
$var wire 1 I DA[1]~input_o $end
$var wire 1 J DA[0]~input_o $end
$var wire 1 K Decoder0~1_combout $end
$var wire 1 L Decoder0~2_combout $end
$var wire 1 M AA[0]~input_o $end
$var wire 1 N Mux7~0_combout $end
$var wire 1 O Decoder0~0_combout $end
$var wire 1 P regR3[0]~feeder_combout $end
$var wire 1 Q Decoder0~3_combout $end
$var wire 1 R Mux7~1_combout $end
$var wire 1 S FS[2]~input_o $end
$var wire 1 T Add0~3_combout $end
$var wire 1 U MB~input_o $end
$var wire 1 V BA[1]~input_o $end
$var wire 1 W Datain[1]~input_o $end
$var wire 1 X FS[0]~input_o $end
$var wire 1 Y regG[5]~1_combout $end
$var wire 1 Z Mux6~0_combout $end
$var wire 1 [ Mux6~1_combout $end
$var wire 1 \ Datain[2]~input_o $end
$var wire 1 ] Mux5~0_combout $end
$var wire 1 ^ Mux5~1_combout $end
$var wire 1 _ regG[5]~2_combout $end
$var wire 1 ` BA[0]~input_o $end
$var wire 1 a Mux4~0_combout $end
$var wire 1 b regR1[3]~feeder_combout $end
$var wire 1 c Mux4~1_combout $end
$var wire 1 d Mux3~0_combout $end
$var wire 1 e Mux3~1_combout $end
$var wire 1 f Mux19~0_combout $end
$var wire 1 g Mux19~1_combout $end
$var wire 1 h Datain[5]~input_o $end
$var wire 1 i Mux1~0_combout $end
$var wire 1 j Mux1~1_combout $end
$var wire 1 k Mux17~0_combout $end
$var wire 1 l Mux17~1_combout $end
$var wire 1 m regG~11_combout $end
$var wire 1 n Datain[7]~input_o $end
$var wire 1 o Mux16~8_combout $end
$var wire 1 p Mux16~7_combout $end
$var wire 1 q Mux16~4_combout $end
$var wire 1 r Mux16~5_combout $end
$var wire 1 s Mux0~0_combout $end
$var wire 1 t regR3[7]~feeder_combout $end
$var wire 1 u Mux0~1_combout $end
$var wire 1 v Mux16~3_combout $end
$var wire 1 w Mux16~6_combout $end
$var wire 1 x Mux16~9_combout $end
$var wire 1 y regG[5]~0_combout $end
$var wire 1 z Add0~4_combout $end
$var wire 1 { regR3[5]~feeder_combout $end
$var wire 1 | Mux2~0_combout $end
$var wire 1 } Mux2~1_combout $end
$var wire 1 ~ Mux15~0_combout $end
$var wire 1 !! Mux15~1_combout $end
$var wire 1 "! Mux15~2_combout $end
$var wire 1 #! Add1~1 $end
$var wire 1 $! Add1~3 $end
$var wire 1 %! Add1~5 $end
$var wire 1 &! Add1~7 $end
$var wire 1 '! Add1~9 $end
$var wire 1 (! Add1~11 $end
$var wire 1 )! Add1~13 $end
$var wire 1 *! Add1~14_combout $end
$var wire 1 +! Add3~1 $end
$var wire 1 ,! Add3~3 $end
$var wire 1 -! Add3~5 $end
$var wire 1 .! Add3~7 $end
$var wire 1 /! Add3~9 $end
$var wire 1 0! Add3~11 $end
$var wire 1 1! Add3~13 $end
$var wire 1 2! Add3~14_combout $end
$var wire 1 3! Add0~39_combout $end
$var wire 1 4! Add0~40_combout $end
$var wire 1 5! Add1~12_combout $end
$var wire 1 6! Add3~12_combout $end
$var wire 1 7! Add0~34_combout $end
$var wire 1 8! Add0~35_combout $end
$var wire 1 9! Add1~10_combout $end
$var wire 1 :! Add3~10_combout $end
$var wire 1 ;! Add0~29_combout $end
$var wire 1 <! Add0~30_combout $end
$var wire 1 =! Add3~8_combout $end
$var wire 1 >! Add1~8_combout $end
$var wire 1 ?! Add0~43_combout $end
$var wire 1 @! Add0~25_combout $end
$var wire 1 A! Add1~6_combout $end
$var wire 1 B! Add3~6_combout $end
$var wire 1 C! Add0~20_combout $end
$var wire 1 D! Add0~21_combout $end
$var wire 1 E! Add1~4_combout $end
$var wire 1 F! Add3~4_combout $end
$var wire 1 G! Add0~15_combout $end
$var wire 1 H! Add0~16_combout $end
$var wire 1 I! Add3~2_combout $end
$var wire 1 J! Add1~2_combout $end
$var wire 1 K! Add0~10_combout $end
$var wire 1 L! Add0~11_combout $end
$var wire 1 M! Add3~0_combout $end
$var wire 1 N! Add1~0_combout $end
$var wire 1 O! Add0~5_combout $end
$var wire 1 P! Add0~6_combout $end
$var wire 1 Q! Add0~7_combout $end
$var wire 1 R! Add0~9 $end
$var wire 1 S! Add0~13 $end
$var wire 1 T! Add0~18 $end
$var wire 1 U! Add0~23 $end
$var wire 1 V! Add0~27 $end
$var wire 1 W! Add0~32 $end
$var wire 1 X! Add0~37 $end
$var wire 1 Y! Add0~41_combout $end
$var wire 1 Z! Mux16~1_combout $end
$var wire 1 [! Mux16~0_combout $end
$var wire 1 \! Mux16~2_combout $end
$var wire 1 ]! Mux16~10_combout $end
$var wire 1 ^! regR0~7_combout $end
$var wire 1 _! Mux8~0_combout $end
$var wire 1 `! Mux8~1_combout $end
$var wire 1 a! Mux8~2_combout $end
$var wire 1 b! Mux17~2_combout $end
$var wire 1 c! Mux17~3_combout $end
$var wire 1 d! regG[5]~5_combout $end
$var wire 1 e! regG[5]~4_combout $end
$var wire 1 f! Add0~38_combout $end
$var wire 1 g! Add0~36_combout $end
$var wire 1 h! Mux17~4_combout $end
$var wire 1 i! Mux17~5_combout $end
$var wire 1 j! Mux17~6_combout $end
$var wire 1 k! regG[5]~6_combout $end
$var wire 1 l! Datain[6]~input_o $end
$var wire 1 m! regR0~6_combout $end
$var wire 1 n! Mux9~0_combout $end
$var wire 1 o! Mux9~1_combout $end
$var wire 1 p! Mux9~2_combout $end
$var wire 1 q! Mux18~0_combout $end
$var wire 1 r! Mux18~1_combout $end
$var wire 1 s! regG~10_combout $end
$var wire 1 t! Mux18~2_combout $end
$var wire 1 u! Mux18~3_combout $end
$var wire 1 v! Add0~33_combout $end
$var wire 1 w! Mux18~4_combout $end
$var wire 1 x! Add0~31_combout $end
$var wire 1 y! Mux18~5_combout $end
$var wire 1 z! Mux18~6_combout $end
$var wire 1 {! regR0~5_combout $end
$var wire 1 |! regR1[5]~feeder_combout $end
$var wire 1 }! Mux10~0_combout $end
$var wire 1 ~! Mux10~1_combout $end
$var wire 1 !" Mux10~2_combout $end
$var wire 1 "" regG~9_combout $end
$var wire 1 #" Mux19~2_combout $end
$var wire 1 $" Mux19~3_combout $end
$var wire 1 %" Add0~28_combout $end
$var wire 1 &" Add0~26_combout $end
$var wire 1 '" Mux19~4_combout $end
$var wire 1 (" Mux19~5_combout $end
$var wire 1 )" Mux19~6_combout $end
$var wire 1 *" Datain[4]~input_o $end
$var wire 1 +" regR0~4_combout $end
$var wire 1 ," Mux11~0_combout $end
$var wire 1 -" Mux11~1_combout $end
$var wire 1 ." Mux11~2_combout $end
$var wire 1 /" Mux20~0_combout $end
$var wire 1 0" Mux20~1_combout $end
$var wire 1 1" regG~8_combout $end
$var wire 1 2" Mux20~2_combout $end
$var wire 1 3" Mux20~3_combout $end
$var wire 1 4" Add0~24_combout $end
$var wire 1 5" Mux20~4_combout $end
$var wire 1 6" Add0~22_combout $end
$var wire 1 7" Mux20~5_combout $end
$var wire 1 8" Mux20~6_combout $end
$var wire 1 9" Datain[3]~input_o $end
$var wire 1 :" regR0~3_combout $end
$var wire 1 ;" Mux12~0_combout $end
$var wire 1 <" Mux12~1_combout $end
$var wire 1 =" Mux12~2_combout $end
$var wire 1 >" regG~7_combout $end
$var wire 1 ?" Mux21~2_combout $end
$var wire 1 @" Mux21~0_combout $end
$var wire 1 A" Mux21~1_combout $end
$var wire 1 B" Mux21~3_combout $end
$var wire 1 C" Add0~19_combout $end
$var wire 1 D" Add0~17_combout $end
$var wire 1 E" Mux21~4_combout $end
$var wire 1 F" Mux21~5_combout $end
$var wire 1 G" Mux21~6_combout $end
$var wire 1 H" regR0~2_combout $end
$var wire 1 I" regR3[2]~feeder_combout $end
$var wire 1 J" Mux13~0_combout $end
$var wire 1 K" Mux13~1_combout $end
$var wire 1 L" Mux13~2_combout $end
$var wire 1 M" regG~3_combout $end
$var wire 1 N" Mux22~0_combout $end
$var wire 1 O" Mux22~1_combout $end
$var wire 1 P" Mux22~2_combout $end
$var wire 1 Q" Mux22~3_combout $end
$var wire 1 R" Add0~12_combout $end
$var wire 1 S" Add0~14_combout $end
$var wire 1 T" Mux22~4_combout $end
$var wire 1 U" Mux22~5_combout $end
$var wire 1 V" Mux22~6_combout $end
$var wire 1 W" regR0~0_combout $end
$var wire 1 X" regR3[1]~feeder_combout $end
$var wire 1 Y" Mux14~0_combout $end
$var wire 1 Z" Mux14~1_combout $end
$var wire 1 [" Mux14~2_combout $end
$var wire 1 \" Add0~2_combout $end
$var wire 1 ]" Mux23~0_combout $end
$var wire 1 ^" Mux23~1_combout $end
$var wire 1 _" Mux23~2_combout $end
$var wire 1 `" Mux23~5_combout $end
$var wire 1 a" Mux23~4_combout $end
$var wire 1 b" Add0~8_combout $end
$var wire 1 c" Mux23~3_combout $end
$var wire 1 d" Mux23~6_combout $end
$var wire 1 e" Mux23~7_combout $end
$var wire 1 f" regG [7] $end
$var wire 1 g" regG [6] $end
$var wire 1 h" regG [5] $end
$var wire 1 i" regG [4] $end
$var wire 1 j" regG [3] $end
$var wire 1 k" regG [2] $end
$var wire 1 l" regG [1] $end
$var wire 1 m" regG [0] $end
$var wire 1 n" regB [7] $end
$var wire 1 o" regB [6] $end
$var wire 1 p" regB [5] $end
$var wire 1 q" regB [4] $end
$var wire 1 r" regB [3] $end
$var wire 1 s" regB [2] $end
$var wire 1 t" regB [1] $end
$var wire 1 u" regB [0] $end
$var wire 1 v" regA [7] $end
$var wire 1 w" regA [6] $end
$var wire 1 x" regA [5] $end
$var wire 1 y" regA [4] $end
$var wire 1 z" regA [3] $end
$var wire 1 {" regA [2] $end
$var wire 1 |" regA [1] $end
$var wire 1 }" regA [0] $end
$var wire 1 ~" regR2 [7] $end
$var wire 1 !# regR2 [6] $end
$var wire 1 "# regR2 [5] $end
$var wire 1 ## regR2 [4] $end
$var wire 1 $# regR2 [3] $end
$var wire 1 %# regR2 [2] $end
$var wire 1 &# regR2 [1] $end
$var wire 1 '# regR2 [0] $end
$var wire 1 (# regR1 [7] $end
$var wire 1 )# regR1 [6] $end
$var wire 1 *# regR1 [5] $end
$var wire 1 +# regR1 [4] $end
$var wire 1 ,# regR1 [3] $end
$var wire 1 -# regR1 [2] $end
$var wire 1 .# regR1 [1] $end
$var wire 1 /# regR1 [0] $end
$var wire 1 0# regR0 [7] $end
$var wire 1 1# regR0 [6] $end
$var wire 1 2# regR0 [5] $end
$var wire 1 3# regR0 [4] $end
$var wire 1 4# regR0 [3] $end
$var wire 1 5# regR0 [2] $end
$var wire 1 6# regR0 [1] $end
$var wire 1 7# regR0 [0] $end
$var wire 1 8# regR3 [7] $end
$var wire 1 9# regR3 [6] $end
$var wire 1 :# regR3 [5] $end
$var wire 1 ;# regR3 [4] $end
$var wire 1 <# regR3 [3] $end
$var wire 1 =# regR3 [2] $end
$var wire 1 ># regR3 [1] $end
$var wire 1 ?# regR3 [0] $end
$upscope $end
$upscope $end
$enddefinitions $end
#0
$dumpvars
b0 !
b1 "
b0 #
b1000 $
b0 %
0&
1'
1(
0)
01
00
0/
0.
0-
0,
0+
0*
02
13
x4
15
16
17
08
09
0:
0;
0<
0=
0>
0?
0@
0A
0B
0C
0D
1E
0F
0G
1H
0I
0J
0K
1L
0M
0N
0O
0P
0Q
0R
0S
1T
0U
0V
0W
0X
0Y
0Z
0[
0\
0]
0^
1_
1`
0a
1b
0c
0d
0e
0f
0g
0h
0i
0j
0k
0l
0m
0n
0o
0p
0q
0r
0s
0t
0u
0v
0w
1x
0y
0z
0{
0|
0}
0~
0!!
0"!
0#!
1$!
0%!
1&!
0'!
1(!
0)!
0*!
0+!
1,!
0-!
1.!
0/!
10!
01!
12!
03!
04!
05!
16!
07!
08!
09!
1:!
0;!
0<!
1=!
0>!
0?!
0@!
0A!
1B!
0C!
0D!
0E!
1F!
0G!
0H!
1I!
0J!
0K!
0L!
1M!
0N!
0O!
0P!
0Q!
0R!
1S!
0T!
1U!
0V!
1W!
0X!
1Y!
0Z!
0[!
0\!
0]!
0^!
0_!
0`!
0a!
0b!
0c!
0d!
0e!
0f!
1g!
0h!
0i!
0j!
1k!
0l!
0m!
0n!
0o!
0p!
0q!
0r!
0s!
0t!
0u!
0v!
0w!
1x!
0y!
0z!
0{!
0|!
0}!
0~!
0!"
0""
0#"
0$"
0%"
1&"
0'"
0("
0)"
0*"
0+"
0,"
0-"
0."
0/"
00"
01"
02"
03"
04"
05"
16"
07"
08"
19"
1:"
0;"
0<"
0="
0>"
0?"
0@"
0A"
0B"
0C"
1D"
0E"
0F"
0G"
0H"
0I"
0J"
0K"
0L"
0M"
0N"
0O"
0P"
0Q"
1R"
0S"
0T"
0U"
0V"
0W"
0X"
0Y"
0Z"
0["
0\"
0]"
0^"
0_"
0`"
0a"
0b"
1c"
0d"
0e"
0m"
0l"
0k"
0j"
0i"
0h"
0g"
0f"
0u"
0t"
0s"
0r"
0q"
0p"
0o"
0n"
0}"
0|"
0{"
0z"
0y"
0x"
0w"
0v"
0'#
0&#
0%#
0$#
0##
0"#
0!#
0~"
0/#
0.#
0-#
0,#
0+#
0*#
0)#
0(#
07#
06#
05#
04#
03#
02#
01#
00#
0?#
0>#
0=#
0<#
0;#
0:#
09#
08#
$end
#20000
1)
1@
1A
14#
1a
1c
#40000
0)
0@
0A
#50000
b1 #
b0 $
b10 $
b11 $
1F
1W
09"
1J
1G
1W"
0L
1K
0:"
1P
1X"
0b
#60000
1)
1@
1A
1z"
1.#
1/#
14"
11"
1/"
1D!
0.!
0B!
1A!
1Y"
1!!
15"
0U!
06"
1/!
0=!
1Z"
1"!
17"
1V!
0&"
00!
0:!
1["
0W!
0x!
11!
06!
18"
1X!
0g!
02!
0Y!
#80000
0)
0@
0A
#90000
0'
0(
b0 #
b1 $
b0 $
0E
0H
0F
0W
0J
0W"
0G
0K
0X"
0P
#100000
1)
1@
1A
1t"
1u"
1j"
1;
1M"
0I!
1J!
0M!
1N!
1.
1:"
0c"
1\"
1b
#120000
0)
0@
0A
#130000
b1 !
b0 "
0`
1M
0Y"
1;"
0!!
0c
0a
1[
1N
0Z"
1<"
0"!
1R
0["
1="
#140000
1)
1@
1A
0t"
1r"
0u"
0z"
1|"
1}"
0,!
10"
1.!
1N"
1+!
04"
0/"
0D!
1S"
1L!
1`"
1P!
0T
1-!
0F!
12"
0/!
1=!
1I!
05"
00"
1U!
16"
1T"
0S!
0R"
1d"
1b"
1B!
13"
10!
1:!
07"
02"
0V!
1&"
1U"
1T!
0D"
1e"
01!
16!
03"
1W!
1x!
0U!
06"
08"
1V"
12!
0X!
1g!
1V!
0&"
1Y!
0W!
0x!
1X!
0g!
0Y!
#160000
0)
0@
0A
#170000
b11 !
b100 %
b101 %
b10 !
1X
1S
0M
1D
1a"
1O"
1e!
1[!
1Y!
0X!
1g!
1W!
1x!
0V!
1&"
1U!
16"
0T!
1D"
1S!
1R"
1Q!
1v
1o
0\"
0N"
14"
1%"
1v!
1f!
1z
1f
0[
0N
0R
1P"
0T"
1E"
17"
1'"
1y!
1h!
1\!
0Y!
0g!
0x!
0&"
06"
0D"
1R!
0b"
1w
0x
0O"
0P!
0L!
1K!
1C!
1@!
1;!
17!
13!
1g
1Q"
1F"
1("
1i!
0h!
0y!
0'"
07"
0E"
0d"
0P"
0R!
1b"
1L!
1D!
1&"
1<!
18!
14!
1$"
18"
1z!
0i!
0("
0F"
0Q"
1d"
16"
1'"
1x!
1g!
1Y!
1G"
1)"
1j!
0z!
08"
0e"
17"
1("
1y!
1h!
0j!
0)"
0G"
1e"
1]!
1i!
18"
1)"
1z!
1j!
#180000
1)
1@
1A
0|"
0}"
1m"
1l"
1i"
1h"
1g"
1f"
1?
1>
1=
1<
19
18
0M"
0I!
0J!
0+!
1M!
0N!
1T
1G
1W"
1{!
1m!
1^!
1q
11
10
1-
1,
1+
1*
1+"
0S"
0K!
1,!
1I!
1c"
1O!
1P
1X"
1|!
1{
1t
0L!
0-!
1F!
1S"
1K!
1P!
0R"
0B!
1C"
1G!
1L!
1R!
0b"
0U"
04"
0C!
1H!
0S!
0d"
0D!
1T!
0V"
0e"
#200000
0)
0@
0A
#210000
b10 #
1(
b1 "
b1 %
b0 %
1H
0X
0S
1`
1I
1O
0a"
0`"
0e!
0[!
0Y!
1X!
0g!
0W!
0x!
1V!
0&"
0U!
06"
1D"
1R"
0Q!
0v
0q
0o
0g
0S"
0C"
0%"
0v!
0f!
0z
0f
1Y"
0;"
1!!
07"
0'"
0y!
0h!
0\!
1Y!
1g!
1x!
1&"
0R!
1b"
0w
1x
0$"
0O!
0K!
0G!
0@!
0;!
07!
03!
1Z"
0<"
1"!
0]!
0("
0i!
0R"
0P!
0L!
0H!
0&"
0<!
08!
04!
1["
0="
08"
0z!
0b"
1S!
1R"
0D"
0x!
0g!
0Y!
0)"
0j!
0T!
1D"
1U!
16"
0V!
1&"
1W!
1x!
0X!
1g!
1Y!
#220000
1)
1@
1A
1t"
0r"
1!#
1u"
1"#
1~"
1##
1$#
1&#
1'#
0m"
0l"
0j"
0i"
0h"
0g"
0f"
0?
0>
0=
0<
0;
09
08
1M"
0I!
1J!
01"
1B!
0A!
1j
0M!
1N!
1|
1s
1e
1a
1Z
1R
0G
0W"
0{!
0m!
0^!
01
00
0.
0-
0,
0+
0*
0:"
0+"
0c"
1\"
1}
1c
1[
1u
0P
0X"
0|!
0{
0t
0b
#240000
0)
0@
0A
#250000
0(
0H
0O
#260000
1)
1@
1A
1x"
1v"
1w"
1y"
1z"
1|"
1}"
1v!
1s!
1q!
1<!
00!
0:!
19!
1[!
14!
02!
1*!
1v
1f!
18!
11!
06!
15!
1m
1k
1%"
1""
1?!
1/!
0=!
1>!
1f
14"
11"
1/"
1D!
0.!
0B!
1A!
1S"
1N"
0M"
1L!
1I!
0$!
0J!
1`"
1]"
1P!
1M!
1#!
0N!
0T
1w!
0W!
0x!
16!
1\!
0Y!
1Z!
1w
1h!
1X!
0g!
12!
1'"
1@!
1:!
15"
0U!
06"
1=!
1T"
1O"
0S!
0R"
1E!
1d"
1^"
1b"
1c"
1J!
0\"
1y!
1g!
1i!
1Y!
1("
1V!
17"
1U"
1P"
1T!
0D"
1_"
1]!
1e"
1x!
1Q"
16"
1z!
1j!
1)"
18"
1V"
#280000
0)
0@
0A
#300000
1)
1@
1A
1m"
1l"
1j"
1i"
1h"
1g"
1f"
1?
1>
1=
1<
1;
19
18
1G
1W"
1{!
1m!
1^!
11
10
1.
1-
1,
1+
1*
1:"
1+"
1P
1X"
1|!
1{
1t
1b
#320000
0)
0@
0A
#330000
b1000 %
b1010 %
b1011 %
1X
1C
1B
1a"
10"
1r!
1e!
0Y!
0g!
0x!
0&"
06"
0T!
1D"
1S!
1R"
1Q!
1y
1q
1o
1l
1g
1Y
0c"
0_"
0x
08"
0)"
0z!
0j!
12"
1t!
0T"
1E"
05"
0'"
0w!
0h!
1U!
16"
0D"
1R!
0b"
0P!
0L!
1K!
1G!
0D!
1C!
0<!
1;!
08!
17!
04!
13!
1r
1x
1c!
1$"
0Q"
1?"
1#"
1b!
0]!
0e"
1F"
0("
0y!
0i!
0V!
1&"
0E"
0d"
0R!
1b"
1L!
1H!
06"
1D!
1W!
1x!
1<!
0X!
1g!
18!
1Y!
14!
0w
1B"
0$"
0c!
1]!
1j!
1)"
0V"
1'"
0F"
1d"
1D"
07"
16"
1y!
1h!
0x
1G"
0)"
0j!
1("
1E"
17"
1i!
0]!
1F"
#340000
1)
1@
1A
0m"
0l"
1k"
0j"
0i"
0h"
0g"
0f"
0?
0>
0=
0<
0;
1:
09
08
0G
0W"
1H"
0{!
0m!
0^!
01
00
1/
0.
0-
0,
0+
0*
0:"
0+"
0P
0X"
1I"
0|!
0{
0t
0b
#360000
0)
0@
0A
#370000
1(
b11 %
b1 %
b0 %
1H
0X
0C
0B
1O
0a"
00"
0r!
0e!
0Y!
1X!
0g!
0W!
0x!
1V!
0&"
0U!
06"
1T!
0D"
0S!
0R"
0Q!
0y
0q
0o
0l
0g
0Y
1c"
1_"
0r
1e"
1V"
18"
1)"
1z!
1j!
1]!
02"
0t!
0U"
1T"
0E"
07"
15"
0y!
1w!
1Y!
1g!
1x!
1&"
16"
1D"
0b"
1P!
0K!
0G!
0C!
0;!
07!
03!
1x
1Q"
0?"
13"
0#"
1u!
0b!
1w
0]!
03"
0u!
1U"
0F"
17"
1y!
1b"
0H!
0B"
0V"
08"
0z!
1]!
0D"
18"
1z!
1V"
0G"
#380000
1)
1@
1A
0!#
0"#
0~"
0##
0$#
1%#
0&#
0'#
1m"
1l"
0k"
1j"
1i"
1h"
1g"
1f"
1?
1>
1=
1<
1;
0:
19
18
0j
0|
0s
0e
0a
1^
0Z
0R
1G
1W"
0H"
1{!
1m!
1^!
11
10
0/
1.
1-
1,
1+
1*
1:"
1+"
0}
0c
0[
0u
1P
1X"
0I"
1|!
1{
1t
1b
#400000
0)
0@
0A
#410000
0(
0H
0O
#420000
1)
1@
1A
0x"
0v"
0w"
0y"
0z"
1{"
0|"
0}"
0v!
0s!
0q!
0<!
0:!
09!
0[!
04!
02!
0*!
0v
0f!
08!
06!
05!
0m
0k
0%"
0""
0?!
0=!
0>!
0f
04"
01"
0/"
0D!
1.!
1B!
0A!
1C"
1@"
1>"
1H!
1-!
0F!
1%!
0E!
0S"
0N"
1M"
0L!
0I!
0J!
0`"
0]"
0P!
0M!
0#!
1N!
1T
0w!
0x!
0\!
0Y!
0Z!
0w
0h!
0g!
0'"
0@!
05"
06"
0/!
1=!
1E"
1D"
0.!
0B!
1A!
0T"
0O"
1S!
1R"
0d"
0^"
0b"
0c"
1$!
1J!
1\"
0y!
0i!
0("
0&"
07"
10!
1:!
1F"
1/!
0=!
0U"
0P"
0D"
0_"
0%!
1E!
0]!
0e"
01!
16!
00!
0:!
0Q"
0A!
0z!
0j!
0)"
08"
1G"
0V"
12!
11!
06!
02!
#440000
0)
0@
0A
#450000
b1 %
1X
1a"
1`"
1]"
1O"
1A"
1e!
1[!
1Z!
1Y!
0X!
1g!
1W!
1x!
0V!
1&"
1U!
16"
0T!
1D"
0R"
1Q!
1q
1o
1^"
1P"
1B"
17"
1'"
1y!
1h!
1\!
0Y!
0g!
0x!
0&"
06"
1b"
0x
1_"
1Q"
1("
1i!
0h!
0y!
0'"
07"
1d"
18"
1z!
0i!
0("
1e"
1)"
1j!
0z!
08"
0j!
0)"
#460000
1)
1@
1A
0l"
1k"
0j"
0i"
0h"
0g"
0f"
0?
0>
0=
0<
0;
1:
09
0W"
1H"
0{!
0m!
0^!
00
1/
0.
0-
0,
0+
0*
0:"
0+"
0X"
1I"
0|!
0{
0t
0b
#480000
0)
0@
0A
#490000
1(
1H
1O
#490411
b0 %
0X
0a"
0`"
0]"
0O"
0A"
0e!
0[!
0Z!
1Y!
1g!
1x!
1&"
16"
1T!
0D"
1R"
0Q!
0q
0o
0d"
0^"
0P"
0B"
0\!
0U!
06"
0b"
1x
1]!
0_"
0Q"
1V!
0&"
0e"
0]!
0W!
0x!
1X!
0g!
0Y!
#500000
1)
1@
1A
1'#
0m"
08
1R
0G
01
0P
#520000
0)
0@
0A
#530000
0(
0H
0O
#540000
1)
1@
1A
1}"
1`"
1]"
1P!
1M!
1#!
0N!
0T
1d"
1^"
1b"
1c"
0$!
0J!
0\"
1_"
1%!
0E!
1e"
1A!
#560000
0)
0@
0A
#580000
1)
1@
1A
1m"
18
1G
11
1P
#600000
0)
0@
0A
#610000
b11 #
1J
#620000
1)
1@
1A
#640000
0)
0@
0A
#660000
1)
1@
1A
#680000
0)
0@
0A
#690000
b11 "
b10 "
0`
1V
0Y"
1J"
0!!
1~
0Z"
1K"
0"!
1!!
0["
1L"
1"!
#700000
1)
1@
1A
0t"
1s"
0M"
1I!
1$!
1J!
1A"
0>"
0-!
1F!
1E!
0E!
1B"
1.!
1B!
0/!
1=!
10!
1:!
01!
16!
12!
#720000
0)
0@
0A
#740000
1)
1@
1A
#760000
0)
0@
0A
#770000
b0 "
b1 "
1`
0V
1Y"
0K"
0J"
0!!
0~
1Z"
0L"
0"!
1!!
1["
1"!
#780000
1)
1@
1A
1t"
0s"
1M"
0I!
0$!
0J!
0A"
1>"
1-!
0F!
0%!
1E!
1%!
0E!
0B"
0.!
0B!
0A!
1A!
1/!
0=!
00!
0:!
11!
06!
02!
#800000
0)
0@
0A
#820000
1)
1@
1A
#840000
0)
0@
0A
#860000
1)
1@
1A
#880000
0)
0@
0A
#900000
1)
1@
1A
#920000
0)
0@
0A
#940000
1)
1@
1A
#960000
0)
0@
0A
#980000
1)
1@
1A
