lab08_3(2)/simulation/qsim/lab08_3.msim.vcd
$comment
	File created using the following command:
		vcd file lab08_3.msim.vcd -direction
$end
$date
	Fri Dec 06 14:47:15 2019
$end
$version
	ModelSim Version 10.5b
$end
$timescale
	1ps
$end

$scope module lab08_3_vlg_vec_tst $end
$var reg 1 ! X $end
$var reg 1 " clk $end
$var wire 1 # A $end
$var wire 1 $ B $end
$var wire 1 % Y $end

$scope module i1 $end
$var wire 1 & gnd $end
$var wire 1 ' vcc $end
$var wire 1 ( unknown $end
$var tri1 1 ) devclrn $end
$var tri1 1 * devpor $end
$var tri1 1 + devoe $end
$var wire 1 , A~output_o $end
$var wire 1 - B~output_o $end
$var wire 1 . Y~output_o $end
$var wire 1 / clk~input_o $end
$var wire 1 0 clk~inputclkctrl_outclk $end
$var wire 1 1 X~input_o $end
$var wire 1 2 B~0_combout $end
$var wire 1 3 B~reg0_q $end
$var wire 1 4 A~0_combout $end
$var wire 1 5 A~reg0_q $end
$var wire 1 6 Y~0_combout $end
$upscope $end
$upscope $end
$enddefinitions $end
#0
$dumpvars
0!
0"
0#
0$
0%
0&
1'
x(
1)
1*
1+
0,
0-
0.
0/
00
01
02
03
04
05
06
$end
#25000
1"
1/
10
#50000
0"
0/
00
#70000
1!
11
12
#75000
1"
1/
10
13
1-
1$
14
#100000
0!
0"
01
0/
00
16
04
02
1.
1%
#125000
1"
1/
10
03
0-
0$
06
0.
0%
#150000
0"
0/
00
#170000
1!
11
12
#175000
1"
1/
10
13
1-
1$
14
#200000
0"
0/
00
#225000
1"
1/
10
15
1,
1#
02
#250000
0!
0"
01
0/
00
16
04
1.
1%
#275000
1"
1/
10
05
03
0-
0,
0#
0$
06
0.
0%
#300000
0"
0/
00
#320000
1!
11
12
#325000
1"
1/
10
13
1-
1$
14
#350000
0"
0/
00
#375000
1"
1/
10
15
1,
1#
02
#400000
0"
0/
00
#425000
1"
1/
10
03
0-
0$
#450000
0!
0"
01
0/
00
16
04
1.
1%
#475000
1"
1/
10
05
0,
0#
06
0.
0%
#500000
0"
0/
00
#520000
1!
11
12
#525000
1"
1/
10
13
1-
1$
14
#550000
0"
0/
00
#575000
1"
1/
10
15
1,
1#
02
#600000
0"
0/
00
#625000
1"
1/
10
03
0-
0$
#650000
0"
0/
00
#675000
1"
1/
10
#700000
0!
0"
01
0/
00
16
04
1.
1%
#725000
1"
1/
10
05
0,
0#
06
0.
0%
#750000
0"
0/
00
#775000
1"
1/
10
#800000
0"
0/
00
#825000
1"
1/
10
#850000
0"
0/
00
#875000
1"
1/
10
#900000
0"
0/
00
#925000
1"
1/
10
#950000
0"
0/
00
#975000
1"
1/
10
