lab08_4(2)/simulation/qsim/lab08_4.msim.vcd
$comment
	File created using the following command:
		vcd file lab08_4.msim.vcd -direction
$end
$date
	Fri Nov 29 15:53:39 2019
$end
$version
	ModelSim Version 10.5b
$end
$timescale
	1ps
$end

$scope module lab08_4_vlg_vec_tst $end
$var reg 1 ! T $end
$var reg 1 " X $end
$var reg 1 # clk $end
$var wire 1 $ out [1] $end
$var wire 1 % out [0] $end

$scope module i1 $end
$var wire 1 & gnd $end
$var wire 1 ' vcc $end
$var wire 1 ( unknown $end
$var tri1 1 ) devclrn $end
$var tri1 1 * devpor $end
$var tri1 1 + devoe $end
$var wire 1 , out[0]~output_o $end
$var wire 1 - out[1]~output_o $end
$var wire 1 . clk~input_o $end
$var wire 1 / T~input_o $end
$var wire 1 0 X~input_o $end
$var wire 1 1 S~0_combout $end
$var wire 1 2 S~q $end
$upscope $end
$upscope $end
$enddefinitions $end
#0
$dumpvars
0!
0"
0#
0%
0$
0&
1'
x(
1)
1*
1+
0,
0-
0.
0/
00
11
02
$end
#40000
1"
10
01
#50000
1#
1.
#100000
0"
0#
00
0.
11
#150000
1#
1.
12
1,
1%
#200000
0#
0.
#250000
1#
1.
#300000
0#
0.
#340000
1!
1/
01
#350000
1#
1.
02
0,
0%
11
#400000
0!
0#
0/
0.
#450000
1#
1.
12
1,
1%
#500000
0#
0.
#550000
1#
1.
#600000
0#
0.
#650000
1#
1.
#700000
0#
0.
#750000
1#
1.
#800000
0#
0.
#850000
1#
1.
#900000
0#
0.
#950000
1#
1.
