Lab09_2/simulation/qsim/lab09.msim.vcd
$comment
	File created using the following command:
		vcd file lab09.msim.vcd -direction
$end
$date
	Fri Dec 13 15:26:51 2019
$end
$version
	ModelSim Version 10.5b
$end
$timescale
	1ps
$end

$scope module lab09_vlg_vec_tst $end
$var reg 8 ! A [7:0] $end
$var reg 8 " B [7:0] $end
$var reg 3 # S [2:0] $end
$var reg 1 $ carry $end
$var wire 1 % G [7] $end
$var wire 1 & G [6] $end
$var wire 1 ' G [5] $end
$var wire 1 ( G [4] $end
$var wire 1 ) G [3] $end
$var wire 1 * G [2] $end
$var wire 1 + G [1] $end
$var wire 1 , G [0] $end

$scope module i1 $end
$var wire 1 - gnd $end
$var wire 1 . vcc $end
$var wire 1 / unknown $end
$var tri1 1 0 devclrn $end
$var tri1 1 1 devpor $end
$var tri1 1 2 devoe $end
$var wire 1 3 G[0]~output_o $end
$var wire 1 4 G[1]~output_o $end
$var wire 1 5 G[2]~output_o $end
$var wire 1 6 G[3]~output_o $end
$var wire 1 7 G[4]~output_o $end
$var wire 1 8 G[5]~output_o $end
$var wire 1 9 G[6]~output_o $end
$var wire 1 : G[7]~output_o $end
$var wire 1 ; S[0]~input_o $end
$var wire 1 < carry~input_o $end
$var wire 1 = B[0]~input_o $end
$var wire 1 > A[0]~input_o $end
$var wire 1 ? Mux7~0_combout $end
$var wire 1 @ S[2]~input_o $end
$var wire 1 A S[1]~input_o $end
$var wire 1 B Add0~1_combout $end
$var wire 1 C Add0~0_combout $end
$var wire 1 D Add0~2_combout $end
$var wire 1 E Add0~3_combout $end
$var wire 1 F Add0~5_cout $end
$var wire 1 G Add0~6_combout $end
$var wire 1 H Add0~8_combout $end
$var wire 1 I Add0~9_combout $end
$var wire 1 J Add0~10_combout $end
$var wire 1 K Add0~11_combout $end
$var wire 1 L A[1]~input_o $end
$var wire 1 M B[1]~input_o $end
$var wire 1 N Mux6~0_combout $end
$var wire 1 O Add0~12_combout $end
$var wire 1 P Add0~7 $end
$var wire 1 Q Add0~13_combout $end
$var wire 1 R Add0~15_combout $end
$var wire 1 S Add0~16_combout $end
$var wire 1 T A[2]~input_o $end
$var wire 1 U B[2]~input_o $end
$var wire 1 V Add0~17_combout $end
$var wire 1 W Add0~14 $end
$var wire 1 X Add0~18_combout $end
$var wire 1 Y Add0~20_combout $end
$var wire 1 Z Mux5~0_combout $end
$var wire 1 [ Add0~21_combout $end
$var wire 1 \ B[3]~input_o $end
$var wire 1 ] Add0~22_combout $end
$var wire 1 ^ A[3]~input_o $end
$var wire 1 _ Add0~19 $end
$var wire 1 ` Add0~23_combout $end
$var wire 1 a Add0~25_combout $end
$var wire 1 b Mux4~0_combout $end
$var wire 1 c Add0~26_combout $end
$var wire 1 d B[4]~input_o $end
$var wire 1 e A[4]~input_o $end
$var wire 1 f Mux3~0_combout $end
$var wire 1 g Add0~27_combout $end
$var wire 1 h Add0~24 $end
$var wire 1 i Add0~28_combout $end
$var wire 1 j Add0~30_combout $end
$var wire 1 k Add0~31_combout $end
$var wire 1 l A[5]~input_o $end
$var wire 1 m B[5]~input_o $end
$var wire 1 n Mux2~0_combout $end
$var wire 1 o Add0~32_combout $end
$var wire 1 p Add0~29 $end
$var wire 1 q Add0~33_combout $end
$var wire 1 r Add0~35_combout $end
$var wire 1 s Add0~36_combout $end
$var wire 1 t A[6]~input_o $end
$var wire 1 u B[6]~input_o $end
$var wire 1 v Mux1~0_combout $end
$var wire 1 w Add0~37_combout $end
$var wire 1 x Add0~34 $end
$var wire 1 y Add0~38_combout $end
$var wire 1 z Add0~40_combout $end
$var wire 1 { Add0~41_combout $end
$var wire 1 | B[7]~input_o $end
$var wire 1 } A[7]~input_o $end
$var wire 1 ~ Mux0~0_combout $end
$var wire 1 !! Add0~42_combout $end
$var wire 1 "! Add0~39 $end
$var wire 1 #! Add0~43_combout $end
$var wire 1 $! Add0~45_combout $end
$var wire 1 %! Add0~46_combout $end
$upscope $end
$upscope $end
$enddefinitions $end
#0
$dumpvars
b1001 !
b11 "
b0 #
0$
1,
0+
0*
1)
0(
0'
0&
0%
0-
1.
x/
10
11
12
13
04
05
16
07
08
09
0:
0;
0<
1=
1>
1?
0@
0A
0B
1C
0D
0E
0F
1G
1H
0I
1J
1K
0L
1M
0N
0O
1P
0Q
0R
0S
0T
0U
0V
0W
0X
0Y
0Z
0[
0\
0]
1^
1_
1`
1a
0b
1c
0d
0e
0f
0g
0h
0i
0j
0k
0l
0m
0n
0o
1p
0q
0r
0s
0t
0u
0v
0w
0x
0y
0z
0{
0|
0}
0~
0!!
1"!
0#!
0$!
0%!
$end
#40000
1$
1<
1b
1N
1B
0P
0G
1Q
0J
1R
0K
03
0,
1S
14
1+
#80000
b1 #
0$
1;
0<
1O
1E
0?
1W
0Q
1X
0R
1Y
0S
04
0+
1[
15
1*
#120000
1$
1<
1~
1v
1n
1f
0b
1Z
1D
1F
1G
1J
1K
13
1,
#160000
b11 #
b10 #
0$
0;
1A
0<
1!!
0~
1w
0v
1o
0n
1g
0f
1]
0Z
1V
0O
0N
0D
0C
1?
1#!
1y
1q
1i
1h
0`
0_
0X
0W
1Q
0F
0G
1$!
1z
1r
1j
0p
0i
0a
1`
0Y
1_
1X
1R
1P
1G
0J
1x
0q
0j
1a
0`
1Y
0Q
1J
1%!
1{
1s
1k
0c
0[
1S
0K
03
14
05
06
17
18
19
1:
0"!
0y
0r
0a
0R
1%
1&
1'
1(
0)
0*
1+
0,
0k
1c
1[
1K
13
15
16
07
0#!
0z
0(
1)
1*
1,
0s
0c
0S
04
06
08
0$!
0'
0)
0+
0{
09
0&
0%!
0:
0%
#200000
1$
1<
1b
1N
1D
1F
0P
0G
1Q
0J
1R
0K
03
0,
1S
14
1+
#240000
b11 #
0$
1;
0<
1O
0E
0D
1C
0?
1W
0Q
0F
1G
0_
0X
0R
0G
1J
1`
0Y
0J
0S
1K
13
04
1a
0+
1,
0[
0K
03
05
0*
0,
1c
16
1)
#280000
1$
1<
1~
1v
1n
1f
0b
1Z
1I
0H
1J
1K
13
1,
#320000
b111 #
b101 #
b100 #
0$
0;
0A
1@
0<
0!!
0~
0w
0v
0o
0n
0g
0f
0]
0Z
0V
0O
0N
0I
0B
1?
1%!
1{
1s
1k
1[
1S
14
15
17
18
19
1:
1#!
1"!
1y
0x
1q
1p
1i
0`
1_
1X
0W
1Q
0a
0J
1P
1G
1%
1&
1'
1(
1*
1+
0%!
0{
0s
0k
0[
0S
04
05
07
08
09
0:
0#!
0y
0q
0h
1`
0X
0Q
0%
0&
0'
0(
0*
0+
0c
06
0i
0)
#360000
1$
1<
1b
1N
1B
0P
0G
1c
1S
14
16
1Q
1)
1+
#400000
b101 #
0$
1;
0<
1O
1E
0?
1W
0Q
0K
03
1X
0,
#440000
1$
1<
1~
1v
1n
1f
0b
1Z
1D
1F
1%!
1{
1s
1k
0c
1[
15
06
17
18
19
1:
1G
1%
1&
1'
1(
0)
1*
#480000
b111 #
b110 #
0$
0;
1A
0<
1!!
0~
1w
0v
1o
0n
1g
0f
1]
0Z
1V
0O
0N
0D
0C
1?
1#!
1y
1q
1i
1h
0`
0_
0X
0W
1Q
0F
0G
0%!
0{
0s
0k
0[
0S
1K
13
04
05
07
08
09
0:
0p
0i
1`
1_
1X
1P
1G
0%
0&
0'
0(
0*
0+
1,
1x
0q
0`
0Q
0"!
0y
0#!
#520000
1$
1<
1b
1N
1D
1F
1c
1S
14
16
0P
0G
1)
1+
1Q
#560000
b111 #
0$
1;
0<
1O
0E
0D
1C
0?
1W
0Q
0F
1G
0K
03
0_
0X
0G
0,
1`
#600000
1$
1<
1~
1v
1n
1f
0b
1Z
1%!
1{
1s
1k
0c
1[
15
06
17
18
19
1:
1%
1&
1'
1(
0)
1*
#640000
b11 #
b1 #
b0 #
0$
0;
0A
0@
0<
0!!
0~
0w
0v
0o
0n
0g
0f
0]
0Z
0V
0O
0N
1H
0B
1?
0%!
0{
0s
0k
0[
0S
04
05
07
08
09
0:
1#!
1"!
1y
0x
1q
1p
1i
0`
1_
1X
0W
1Q
1a
1P
1G
0%
0&
0'
0(
0*
0+
1$!
0#!
1z
0y
1r
0q
1j
0a
0h
1`
1Y
0X
1R
0Q
1J
1c
16
0$!
0z
0r
0i
1a
0Y
0R
1)
1%!
1{
1s
1k
0c
1[
1S
1K
13
14
15
06
17
18
19
1:
0j
1%
1&
1'
1(
0)
1*
1+
1,
0%!
0{
0s
1c
0[
0S
04
05
16
08
09
0:
0%
0&
0'
1)
0*
0+
0k
07
0(
