lab08-4(2)/simulation/qsim/lab084.msim.vcd
$comment
	File created using the following command:
		vcd file lab084.msim.vcd -direction
$end
$date
	Fri Dec 06 14:34:12 2019
$end
$version
	ModelSim Version 10.5b
$end
$timescale
	1ps
$end

$scope module lab084_vlg_vec_tst $end
$var reg 1 ! T $end
$var reg 1 " clk $end
$var reg 1 # x $end
$var wire 1 $ Q [1] $end
$var wire 1 % Q [0] $end

$scope module i1 $end
$var wire 1 & gnd $end
$var wire 1 ' vcc $end
$var wire 1 ( unknown $end
$var tri1 1 ) devclrn $end
$var tri1 1 * devpor $end
$var tri1 1 + devoe $end
$var wire 1 , Q[0]~output_o $end
$var wire 1 - Q[1]~output_o $end
$var wire 1 . clk~input_o $end
$var wire 1 / clk~inputclkctrl_outclk $end
$var wire 1 0 x~input_o $end
$var wire 1 1 T~input_o $end
$var wire 1 2 Mux0~0_combout $end
$var wire 1 3 Q[1]~reg0_q $end
$var wire 1 4 Mux1~0_combout $end
$var wire 1 5 Q[0]~reg0_q $end
$upscope $end
$upscope $end
$enddefinitions $end
#0
$dumpvars
0!
0"
0#
0%
0$
0&
1'
x(
1)
1*
1+
0,
0-
0.
0/
00
01
02
03
14
05
$end
#40000
1#
10
04
#50000
1"
1.
1/
#100000
0#
0"
00
0.
0/
14
#150000
1"
1.
1/
15
1,
1%
#200000
0"
0.
0/
#250000
1"
1.
1/
#300000
0"
0.
0/
#340000
1!
11
04
12
#350000
1"
1.
1/
05
13
1-
0,
0%
1$
14
#400000
0!
0"
01
0.
0/
#450000
1"
1.
1/
15
1,
1%
04
02
#500000
0"
0.
0/
#550000
1"
1.
1/
05
03
0-
0,
0%
0$
14
#600000
0"
0.
0/
#650000
1"
1.
1/
15
1,
1%
#700000
0"
0.
0/
#750000
1"
1.
1/
#800000
0"
0.
0/
#850000
1"
1.
1/
#900000
0"
0.
0/
#950000
1"
1.
1/
